Matlab/ECE300/tek0009CH1.csv

Model,MDO4014B-3
Firmware Version,3.20

Waveform Type,ANALOG
Point Format,Y
Horizontal Units,s
Horizontal Scale,0.1
Horizontal Delay,0.389
Sample Interval,1e-05
Record Length,100000
Gating,0.0% to 100.0%
Probe Attenuation,10
Vertical Units,V
Vertical Offset,0
Vertical Scale,0.5
Vertical Position,1.4
,
,
,
Label,
TIME,CH1
-1.110000e-01,0.2
-1.109900e-01,0.16
-1.109800e-01,0.18
-1.109700e-01,0.18
-1.109600e-01,0.14
-1.109500e-01,0.16
-1.109400e-01,0.14
-1.109300e-01,0.14
-1.109200e-01,0.14
-1.109100e-01,0.14
-1.109000e-01,0.14
-1.108900e-01,0.14
-1.108800e-01,0.16
-1.108700e-01,0.14
-1.108600e-01,0.12
-1.108500e-01,0.1
-1.108400e-01,0.1
-1.108300e-01,0.1
-1.108200e-01,0.12
-1.108100e-01,0.12
-1.108000e-01,0.14
-1.107900e-01,0.14
-1.107800e-01,0.14
-1.107700e-01,0.18
-1.107600e-01,0.18
-1.107500e-01,0.16
-1.107400e-01,0.18
-1.107300e-01,0.14
-1.107200e-01,0.14
-1.107100e-01,0.14
-1.107000e-01,0.12
-1.106900e-01,0.14
-1.106800e-01,0.14
-1.106700e-01,0.18
-1.106600e-01,0.16
-1.106500e-01,0.14
-1.106400e-01,0.14
-1.106300e-01,0.12
-1.106200e-01,0.14
-1.106100e-01,0.14
-1.106000e-01,0.16
-1.105900e-01,0.18
-1.105800e-01,0.18
-1.105700e-01,0.2
-1.105600e-01,0.14
-1.105500e-01,0.14
-1.105400e-01,0.18
-1.105300e-01,0.16
-1.105200e-01,0.14
-1.105100e-01,0.18
-1.105000e-01,0.16
-1.104900e-01,0.16
-1.104800e-01,0.16
-1.104700e-01,0.18
-1.104600e-01,0.18
-1.104500e-01,0.18
-1.104400e-01,0.16
-1.104300e-01,0.14
-1.104200e-01,0.16
-1.104100e-01,0.16
-1.104000e-01,0.14
-1.103900e-01,0.16
-1.103800e-01,0.16
-1.103700e-01,0.14
-1.103600e-01,0.14
-1.103500e-01,0.14
-1.103400e-01,0.14
-1.103300e-01,0.14
-1.103200e-01,0.14
-1.103100e-01,0.14
-1.103000e-01,0.12
-1.102900e-01,0.1
-1.102800e-01,0.14
-1.102700e-01,0.14
-1.102600e-01,0.16
-1.102500e-01,0.14
-1.102400e-01,0.16
-1.102300e-01,0.12
-1.102200e-01,0.12
-1.102100e-01,0.12
-1.102000e-01,0.14
-1.101900e-01,0.12
-1.101800e-01,0.1
-1.101700e-01,0.1
-1.101600e-01,0.12
-1.101500e-01,0.12
-1.101400e-01,0.1
-1.101300e-01,0.08
-1.101200e-01,0.1
-1.101100e-01,0.1
-1.101000e-01,0.1
-1.100900e-01,0.12
-1.100800e-01,0.14
-1.100700e-01,0.14
-1.100600e-01,0.12
-1.100500e-01,0.12
-1.100400e-01,0.14
-1.100300e-01,0.12
-1.100200e-01,0.12
-1.100100e-01,0.1
-1.100000e-01,0.1
-1.099900e-01,0.12
-1.099800e-01,0.14
-1.099700e-01,0.14
-1.099600e-01,0.16
-1.099500e-01,0.14
-1.099400e-01,0.12
-1.099300e-01,0.12
-1.099200e-01,0.14
-1.099100e-01,0.12
-1.099000e-01,0.14
-1.098900e-01,0.12
-1.098800e-01,0.14
-1.098700e-01,0.14
-1.098600e-01,0.12
-1.098500e-01,0.12
-1.098400e-01,0.12
-1.098300e-01,0.14
-1.098200e-01,0.14
-1.098100e-01,0.14
-1.098000e-01,0.14
-1.097900e-01,0.14
-1.097800e-01,0.16
-1.097700e-01,0.12
-1.097600e-01,0.16
-1.097500e-01,0.12
-1.097400e-01,0.14
-1.097300e-01,0.12
-1.097200e-01,0.12
-1.097100e-01,0.1
-1.097000e-01,0.1
-1.096900e-01,0.1
-1.096800e-01,0.12
-1.096700e-01,0.08
-1.096600e-01,0.08
-1.096500e-01,0.08
-1.096400e-01,0.08
-1.096300e-01,0.08
-1.096200e-01,0.08
-1.096100e-01,0.06
-1.096000e-01,0.08
-1.095900e-01,0.1
-1.095800e-01,0.04
-1.095700e-01,0.08
-1.095600e-01,0.08
-1.095500e-01,0.04
-1.095400e-01,0.06
-1.095300e-01,0.06
-1.095200e-01,0.04
-1.095100e-01,0.04
-1.095000e-01,0.04
-1.094900e-01,0.04
-1.094800e-01,0.06
-1.094700e-01,0.06
-1.094600e-01,0.04
-1.094500e-01,0.08
-1.094400e-01,0.06
-1.094300e-01,0.06
-1.094200e-01,0.02
-1.094100e-01,0.04
-1.094000e-01,0.04
-1.093900e-01,0.04
-1.093800e-01,0.04
-1.093700e-01,0.04
-1.093600e-01,0.04
-1.093500e-01,0.02
-1.093400e-01,-1.11022e-16
-1.093300e-01,0.02
-1.093200e-01,-1.11022e-16
-1.093100e-01,-0.02
-1.093000e-01,-0.02
-1.092900e-01,-1.11022e-16
-1.092800e-01,-0.02
-1.092700e-01,-1.11022e-16
-1.092600e-01,-1.11022e-16
-1.092500e-01,-1.11022e-16
-1.092400e-01,-1.11022e-16
-1.092300e-01,-0.02
-1.092200e-01,-0.04
-1.092100e-01,-0.04
-1.092000e-01,-0.06
-1.091900e-01,-0.06
-1.091800e-01,-0.04
-1.091700e-01,-0.04
-1.091600e-01,-0.04
-1.091500e-01,-0.04
-1.091400e-01,-0.04
-1.091300e-01,-0.02
-1.091200e-01,-0.04
-1.091100e-01,-0.06
-1.091000e-01,-0.04
-1.090900e-01,-0.06
-1.090800e-01,-0.04
-1.090700e-01,-0.04
-1.090600e-01,-0.04
-1.090500e-01,-0.02
-1.090400e-01,-0.02
-1.090300e-01,-0.02
-1.090200e-01,-0.04
-1.090100e-01,-0.02
-1.090000e-01,-0.06
-1.089900e-01,-0.04
-1.089800e-01,-0.04
-1.089700e-01,-0.02
-1.089600e-01,-0.04
-1.089500e-01,-0.06
-1.089400e-01,-0.06
-1.089300e-01,-0.04
-1.089200e-01,-0.06
-1.089100e-01,-0.08
-1.089000e-01,-0.1
-1.088900e-01,-0.08
-1.088800e-01,-0.1
-1.088700e-01,-0.1
-1.088600e-01,-0.08
-1.088500e-01,-0.08
-1.088400e-01,-0.08
-1.088300e-01,-0.1
-1.088200e-01,-0.1
-1.088100e-01,-0.1
-1.088000e-01,-0.12
-1.087900e-01,-0.1
-1.087800e-01,-0.08
-1.087700e-01,-0.12
-1.087600e-01,-0.12
-1.087500e-01,-0.12
-1.087400e-01,-0.14
-1.087300e-01,-0.1
-1.087200e-01,-0.12
-1.087100e-01,-0.14
-1.087000e-01,-0.12
-1.086900e-01,-0.12
-1.086800e-01,-0.14
-1.086700e-01,-0.14
-1.086600e-01,-0.1
-1.086500e-01,-0.12
-1.086400e-01,-0.1
-1.086300e-01,-0.12
-1.086200e-01,-0.12
-1.086100e-01,-0.14
-1.086000e-01,-0.16
-1.085900e-01,-0.14
-1.085800e-01,-0.18
-1.085700e-01,-0.16
-1.085600e-01,-0.16
-1.085500e-01,-0.16
-1.085400e-01,-0.16
-1.085300e-01,-0.16
-1.085200e-01,-0.18
-1.085100e-01,-0.18
-1.085000e-01,-0.18
-1.084900e-01,-0.18
-1.084800e-01,-0.16
-1.084700e-01,-0.18
-1.084600e-01,-0.2
-1.084500e-01,-0.2
-1.084400e-01,-0.2
-1.084300e-01,-0.2
-1.084200e-01,-0.24
-1.084100e-01,-0.22
-1.084000e-01,-0.22
-1.083900e-01,-0.22
-1.083800e-01,-0.22
-1.083700e-01,-0.2
-1.083600e-01,-0.2
-1.083500e-01,-0.2
-1.083400e-01,-0.2
-1.083300e-01,-0.2
-1.083200e-01,-0.2
-1.083100e-01,-0.2
-1.083000e-01,-0.22
-1.082900e-01,-0.22
-1.082800e-01,-0.22
-1.082700e-01,-0.22
-1.082600e-01,-0.24
-1.082500e-01,-0.22
-1.082400e-01,-0.22
-1.082300e-01,-0.2
-1.082200e-01,-0.22
-1.082100e-01,-0.22
-1.082000e-01,-0.22
-1.081900e-01,-0.22
-1.081800e-01,-0.2
-1.081700e-01,-0.2
-1.081600e-01,-0.2
-1.081500e-01,-0.22
-1.081400e-01,-0.2
-1.081300e-01,-0.2
-1.081200e-01,-0.2
-1.081100e-01,-0.22
-1.081000e-01,-0.22
-1.080900e-01,-0.24
-1.080800e-01,-0.24
-1.080700e-01,-0.24
-1.080600e-01,-0.24
-1.080500e-01,-0.24
-1.080400e-01,-0.24
-1.080300e-01,-0.22
-1.080200e-01,-0.18
-1.080100e-01,-0.24
-1.080000e-01,-0.24
-1.079900e-01,-0.22
-1.079800e-01,-0.22
-1.079700e-01,-0.24
-1.079600e-01,-0.26
-1.079500e-01,-0.26
-1.079400e-01,-0.24
-1.079300e-01,-0.24
-1.079200e-01,-0.22
-1.079100e-01,-0.22
-1.079000e-01,-0.22
-1.078900e-01,-0.22
-1.078800e-01,-0.24
-1.078700e-01,-0.22
-1.078600e-01,-0.24
-1.078500e-01,-0.22
-1.078400e-01,-0.2
-1.078300e-01,-0.18
-1.078200e-01,-0.24
-1.078100e-01,-0.26
-1.078000e-01,-0.24
-1.077900e-01,-0.24
-1.077800e-01,-0.24
-1.077700e-01,-0.22
-1.077600e-01,-0.24
-1.077500e-01,-0.2
-1.077400e-01,-0.22
-1.077300e-01,-0.22
-1.077200e-01,-0.22
-1.077100e-01,-0.26
-1.077000e-01,-0.24
-1.076900e-01,-0.26
-1.076800e-01,-0.24
-1.076700e-01,-0.22
-1.076600e-01,-0.22
-1.076500e-01,-0.2
-1.076400e-01,-0.2
-1.076300e-01,-0.2
-1.076200e-01,-0.2
-1.076100e-01,-0.2
-1.076000e-01,-0.2
-1.075900e-01,-0.22
-1.075800e-01,-0.22
-1.075700e-01,-0.22
-1.075600e-01,-0.2
-1.075500e-01,-0.22
-1.075400e-01,-0.22
-1.075300e-01,-0.22
-1.075200e-01,-0.2
-1.075100e-01,-0.18
-1.075000e-01,-0.2
-1.074900e-01,-0.2
-1.074800e-01,-0.22
-1.074700e-01,-0.2
-1.074600e-01,-0.2
-1.074500e-01,-0.2
-1.074400e-01,-0.2
-1.074300e-01,-0.24
-1.074200e-01,-0.22
-1.074100e-01,-0.22
-1.074000e-01,-0.2
-1.073900e-01,-0.22
-1.073800e-01,-0.24
-1.073700e-01,-0.24
-1.073600e-01,-0.24
-1.073500e-01,-0.24
-1.073400e-01,-0.2
-1.073300e-01,-0.22
-1.073200e-01,-0.22
-1.073100e-01,-0.2
-1.073000e-01,-0.2
-1.072900e-01,-0.22
-1.072800e-01,-0.18
-1.072700e-01,-0.22
-1.072600e-01,-0.2
-1.072500e-01,-0.22
-1.072400e-01,-0.22
-1.072300e-01,-0.2
-1.072200e-01,-0.22
-1.072100e-01,-0.22
-1.072000e-01,-0.2
-1.071900e-01,-0.22
-1.071800e-01,-0.22
-1.071700e-01,-0.26
-1.071600e-01,-0.26
-1.071500e-01,-0.24
-1.071400e-01,-0.24
-1.071300e-01,-0.2
-1.071200e-01,-0.22
-1.071100e-01,-0.24
-1.071000e-01,-0.22
-1.070900e-01,-0.22
-1.070800e-01,-0.2
-1.070700e-01,-0.18
-1.070600e-01,-0.2
-1.070500e-01,-0.2
-1.070400e-01,-0.16
-1.070300e-01,-0.18
-1.070200e-01,-0.16
-1.070100e-01,-0.18
-1.070000e-01,-0.18
-1.069900e-01,-0.18
-1.069800e-01,-0.18
-1.069700e-01,-0.18
-1.069600e-01,-0.16
-1.069500e-01,-0.14
-1.069400e-01,-0.18
-1.069300e-01,-0.16
-1.069200e-01,-0.18
-1.069100e-01,-0.2
-1.069000e-01,-0.18
-1.068900e-01,-0.16
-1.068800e-01,-0.18
-1.068700e-01,-0.18
-1.068600e-01,-0.18
-1.068500e-01,-0.16
-1.068400e-01,-0.18
-1.068300e-01,-0.18
-1.068200e-01,-0.16
-1.068100e-01,-0.14
-1.068000e-01,-0.14
-1.067900e-01,-0.14
-1.067800e-01,-0.14
-1.067700e-01,-0.16
-1.067600e-01,-0.18
-1.067500e-01,-0.16
-1.067400e-01,-0.14
-1.067300e-01,-0.12
-1.067200e-01,-0.12
-1.067100e-01,-0.14
-1.067000e-01,-0.14
-1.066900e-01,-0.1
-1.066800e-01,-0.14
-1.066700e-01,-0.14
-1.066600e-01,-0.14
-1.066500e-01,-0.14
-1.066400e-01,-0.1
-1.066300e-01,-0.1
-1.066200e-01,-0.1
-1.066100e-01,-0.1
-1.066000e-01,-0.12
-1.065900e-01,-0.1
-1.065800e-01,-0.08
-1.065700e-01,-0.08
-1.065600e-01,-0.1
-1.065500e-01,-0.1
-1.065400e-01,-0.1
-1.065300e-01,-0.08
-1.065200e-01,-0.08
-1.065100e-01,-0.08
-1.065000e-01,-0.12
-1.064900e-01,-0.12
-1.064800e-01,-0.1
-1.064700e-01,-0.08
-1.064600e-01,-0.08
-1.064500e-01,-0.12
-1.064400e-01,-0.12
-1.064300e-01,-0.12
-1.064200e-01,-0.1
-1.064100e-01,-0.08
-1.064000e-01,-0.1
-1.063900e-01,-0.08
-1.063800e-01,-0.08
-1.063700e-01,-0.08
-1.063600e-01,-0.08
-1.063500e-01,-0.08
-1.063400e-01,-0.08
-1.063300e-01,-0.08
-1.063200e-01,-0.06
-1.063100e-01,-0.06
-1.063000e-01,-0.06
-1.062900e-01,-0.06
-1.062800e-01,-0.1
-1.062700e-01,-0.04
-1.062600e-01,-0.06
-1.062500e-01,-0.06
-1.062400e-01,-0.08
-1.062300e-01,-0.08
-1.062200e-01,-0.06
-1.062100e-01,-0.04
-1.062000e-01,-0.08
-1.061900e-01,-0.08
-1.061800e-01,-0.08
-1.061700e-01,-0.06
-1.061600e-01,-0.04
-1.061500e-01,-0.04
-1.061400e-01,-0.04
-1.061300e-01,-0.04
-1.061200e-01,-0.06
-1.061100e-01,-0.06
-1.061000e-01,-0.06
-1.060900e-01,-0.06
-1.060800e-01,-0.06
-1.060700e-01,-0.08
-1.060600e-01,-0.06
-1.060500e-01,-0.06
-1.060400e-01,-0.04
-1.060300e-01,-0.06
-1.060200e-01,-0.04
-1.060100e-01,-0.02
-1.060000e-01,-0.02
-1.059900e-01,-1.11022e-16
-1.059800e-01,-0.04
-1.059700e-01,-0.02
-1.059600e-01,-0.02
-1.059500e-01,-0.02
-1.059400e-01,-0.06
-1.059300e-01,-1.11022e-16
-1.059200e-01,-0.02
-1.059100e-01,-1.11022e-16
-1.059000e-01,-1.11022e-16
-1.058900e-01,-1.11022e-16
-1.058800e-01,-1.11022e-16
-1.058700e-01,-1.11022e-16
-1.058600e-01,-0.02
-1.058500e-01,-0.02
-1.058400e-01,-0.02
-1.058300e-01,-0.02
-1.058200e-01,-1.11022e-16
-1.058100e-01,-1.11022e-16
-1.058000e-01,0.02
-1.057900e-01,0.02
-1.057800e-01,0.04
-1.057700e-01,0.06
-1.057600e-01,0.04
-1.057500e-01,0.02
-1.057400e-01,0.04
-1.057300e-01,-1.11022e-16
-1.057200e-01,-1.11022e-16
-1.057100e-01,0.04
-1.057000e-01,0.04
-1.056900e-01,0.02
-1.056800e-01,-1.11022e-16
-1.056700e-01,0.02
-1.056600e-01,0.02
-1.056500e-01,0.02
-1.056400e-01,0.02
-1.056300e-01,0.02
-1.056200e-01,0.06
-1.056100e-01,0.08
-1.056000e-01,0.08
-1.055900e-01,0.04
-1.055800e-01,0.06
-1.055700e-01,0.06
-1.055600e-01,0.04
-1.055500e-01,0.04
-1.055400e-01,0.02
-1.055300e-01,0.04
-1.055200e-01,0.06
-1.055100e-01,0.04
-1.055000e-01,0.08
-1.054900e-01,0.06
-1.054800e-01,0.06
-1.054700e-01,0.06
-1.054600e-01,0.06
-1.054500e-01,0.04
-1.054400e-01,0.02
-1.054300e-01,0.04
-1.054200e-01,0.04
-1.054100e-01,0.08
-1.054000e-01,0.06
-1.053900e-01,0.06
-1.053800e-01,0.08
-1.053700e-01,0.08
-1.053600e-01,0.08
-1.053500e-01,0.1
-1.053400e-01,0.08
-1.053300e-01,0.06
-1.053200e-01,0.06
-1.053100e-01,0.06
-1.053000e-01,0.06
-1.052900e-01,0.08
-1.052800e-01,0.1
-1.052700e-01,0.08
-1.052600e-01,0.1
-1.052500e-01,0.12
-1.052400e-01,0.08
-1.052300e-01,0.06
-1.052200e-01,0.04
-1.052100e-01,0.06
-1.052000e-01,0.06
-1.051900e-01,0.08
-1.051800e-01,0.06
-1.051700e-01,0.04
-1.051600e-01,0.08
-1.051500e-01,0.08
-1.051400e-01,0.04
-1.051300e-01,0.04
-1.051200e-01,0.04
-1.051100e-01,0.06
-1.051000e-01,0.06
-1.050900e-01,0.02
-1.050800e-01,0.04
-1.050700e-01,0.08
-1.050600e-01,0.06
-1.050500e-01,0.08
-1.050400e-01,0.1
-1.050300e-01,0.1
-1.050200e-01,0.06
-1.050100e-01,-1.11022e-16
-1.050000e-01,0.04
-1.049900e-01,0.08
-1.049800e-01,0.08
-1.049700e-01,0.06
-1.049600e-01,0.06
-1.049500e-01,0.04
-1.049400e-01,0.06
-1.049300e-01,0.08
-1.049200e-01,0.08
-1.049100e-01,0.08
-1.049000e-01,0.12
-1.048900e-01,0.06
-1.048800e-01,0.08
-1.048700e-01,0.06
-1.048600e-01,0.08
-1.048500e-01,0.08
-1.048400e-01,0.08
-1.048300e-01,0.06
-1.048200e-01,0.04
-1.048100e-01,0.04
-1.048000e-01,0.08
-1.047900e-01,0.08
-1.047800e-01,0.06
-1.047700e-01,0.08
-1.047600e-01,0.1
-1.047500e-01,0.06
-1.047400e-01,0.08
-1.047300e-01,0.06
-1.047200e-01,0.04
-1.047100e-01,0.06
-1.047000e-01,0.06
-1.046900e-01,0.1
-1.046800e-01,0.1
-1.046700e-01,0.08
-1.046600e-01,0.12
-1.046500e-01,0.1
-1.046400e-01,0.08
-1.046300e-01,0.1
-1.046200e-01,0.06
-1.046100e-01,0.08
-1.046000e-01,0.08
-1.045900e-01,0.1
-1.045800e-01,0.12
-1.045700e-01,0.12
-1.045600e-01,0.1
-1.045500e-01,0.12
-1.045400e-01,0.14
-1.045300e-01,0.12
-1.045200e-01,0.08
-1.045100e-01,0.08
-1.045000e-01,0.08
-1.044900e-01,0.08
-1.044800e-01,0.12
-1.044700e-01,0.12
-1.044600e-01,0.12
-1.044500e-01,0.1
-1.044400e-01,0.1
-1.044300e-01,0.1
-1.044200e-01,0.08
-1.044100e-01,0.08
-1.044000e-01,0.08
-1.043900e-01,0.1
-1.043800e-01,0.12
-1.043700e-01,0.1
-1.043600e-01,0.12
-1.043500e-01,0.12
-1.043400e-01,0.14
-1.043300e-01,0.1
-1.043200e-01,0.1
-1.043100e-01,0.06
-1.043000e-01,0.06
-1.042900e-01,0.08
-1.042800e-01,0.12
-1.042700e-01,0.1
-1.042600e-01,0.1
-1.042500e-01,0.08
-1.042400e-01,0.12
-1.042300e-01,0.1
-1.042200e-01,0.1
-1.042100e-01,0.1
-1.042000e-01,0.14
-1.041900e-01,0.1
-1.041800e-01,0.12
-1.041700e-01,0.1
-1.041600e-01,0.12
-1.041500e-01,0.1
-1.041400e-01,0.12
-1.041300e-01,0.1
-1.041200e-01,0.1
-1.041100e-01,0.08
-1.041000e-01,0.1
-1.040900e-01,0.1
-1.040800e-01,0.14
-1.040700e-01,0.14
-1.040600e-01,0.14
-1.040500e-01,0.12
-1.040400e-01,0.14
-1.040300e-01,0.12
-1.040200e-01,0.1
-1.040100e-01,0.1
-1.040000e-01,0.12
-1.039900e-01,0.1
-1.039800e-01,0.1
-1.039700e-01,0.12
-1.039600e-01,0.1
-1.039500e-01,0.12
-1.039400e-01,0.12
-1.039300e-01,0.1
-1.039200e-01,0.12
-1.039100e-01,0.12
-1.039000e-01,0.12
-1.038900e-01,0.1
-1.038800e-01,0.12
-1.038700e-01,0.1
-1.038600e-01,0.12
-1.038500e-01,0.14
-1.038400e-01,0.14
-1.038300e-01,0.14
-1.038200e-01,0.14
-1.038100e-01,0.12
-1.038000e-01,0.12
-1.037900e-01,0.12
-1.037800e-01,0.1
-1.037700e-01,0.14
-1.037600e-01,0.14
-1.037500e-01,0.14
-1.037400e-01,0.16
-1.037300e-01,0.14
-1.037200e-01,0.18
-1.037100e-01,0.14
-1.037000e-01,0.12
-1.036900e-01,0.12
-1.036800e-01,0.12
-1.036700e-01,0.1
-1.036600e-01,0.1
-1.036500e-01,0.14
-1.036400e-01,0.16
-1.036300e-01,0.16
-1.036200e-01,0.18
-1.036100e-01,0.14
-1.036000e-01,0.12
-1.035900e-01,0.12
-1.035800e-01,0.12
-1.035700e-01,0.16
-1.035600e-01,0.14
-1.035500e-01,0.14
-1.035400e-01,0.14
-1.035300e-01,0.14
-1.035200e-01,0.14
-1.035100e-01,0.1
-1.035000e-01,0.12
-1.034900e-01,0.14
-1.034800e-01,0.14
-1.034700e-01,0.14
-1.034600e-01,0.14
-1.034500e-01,0.14
-1.034400e-01,0.14
-1.034300e-01,0.16
-1.034200e-01,0.18
-1.034100e-01,0.14
-1.034000e-01,0.14
-1.033900e-01,0.14
-1.033800e-01,0.14
-1.033700e-01,0.16
-1.033600e-01,0.14
-1.033500e-01,0.14
-1.033400e-01,0.14
-1.033300e-01,0.18
-1.033200e-01,0.14
-1.033100e-01,0.16
-1.033000e-01,0.12
-1.032900e-01,0.14
-1.032800e-01,0.16
-1.032700e-01,0.14
-1.032600e-01,0.12
-1.032500e-01,0.14
-1.032400e-01,0.16
-1.032300e-01,0.16
-1.032200e-01,0.16
-1.032100e-01,0.16
-1.032000e-01,0.14
-1.031900e-01,0.12
-1.031800e-01,0.14
-1.031700e-01,0.14
-1.031600e-01,0.14
-1.031500e-01,0.14
-1.031400e-01,0.14
-1.031300e-01,0.16
-1.031200e-01,0.14
-1.031100e-01,0.16
-1.031000e-01,0.16
-1.030900e-01,0.12
-1.030800e-01,0.12
-1.030700e-01,0.1
-1.030600e-01,0.12
-1.030500e-01,0.14
-1.030400e-01,0.14
-1.030300e-01,0.16
-1.030200e-01,0.12
-1.030100e-01,0.12
-1.030000e-01,0.14
-1.029900e-01,0.12
-1.029800e-01,0.12
-1.029700e-01,0.1
-1.029600e-01,0.1
-1.029500e-01,0.12
-1.029400e-01,0.14
-1.029300e-01,0.14
-1.029200e-01,0.12
-1.029100e-01,0.14
-1.029000e-01,0.16
-1.028900e-01,0.12
-1.028800e-01,0.1
-1.028700e-01,0.12
-1.028600e-01,0.14
-1.028500e-01,0.12
-1.028400e-01,0.12
-1.028300e-01,0.12
-1.028200e-01,0.1
-1.028100e-01,0.14
-1.028000e-01,0.14
-1.027900e-01,0.12
-1.027800e-01,0.12
-1.027700e-01,0.08
-1.027600e-01,0.12
-1.027500e-01,0.12
-1.027400e-01,0.12
-1.027300e-01,0.14
-1.027200e-01,0.16
-1.027100e-01,0.14
-1.027000e-01,0.14
-1.026900e-01,0.14
-1.026800e-01,0.14
-1.026700e-01,0.14
-1.026600e-01,0.14
-1.026500e-01,0.14
-1.026400e-01,0.14
-1.026300e-01,0.14
-1.026200e-01,0.14
-1.026100e-01,0.16
-1.026000e-01,0.14
-1.025900e-01,0.18
-1.025800e-01,0.14
-1.025700e-01,0.14
-1.025600e-01,0.14
-1.025500e-01,0.14
-1.025400e-01,0.12
-1.025300e-01,0.12
-1.025200e-01,0.14
-1.025100e-01,0.1
-1.025000e-01,0.1
-1.024900e-01,0.1
-1.024800e-01,0.1
-1.024700e-01,0.1
-1.024600e-01,0.08
-1.024500e-01,0.1
-1.024400e-01,0.08
-1.024300e-01,0.08
-1.024200e-01,0.08
-1.024100e-01,0.1
-1.024000e-01,0.08
-1.023900e-01,0.08
-1.023800e-01,0.06
-1.023700e-01,0.1
-1.023600e-01,0.04
-1.023500e-01,0.04
-1.023400e-01,0.04
-1.023300e-01,0.04
-1.023200e-01,0.04
-1.023100e-01,0.06
-1.023000e-01,0.06
-1.022900e-01,0.06
-1.022800e-01,-1.11022e-16
-1.022700e-01,0.04
-1.022600e-01,0.02
-1.022500e-01,0.04
-1.022400e-01,0.04
-1.022300e-01,0.04
-1.022200e-01,0.04
-1.022100e-01,0.04
-1.022000e-01,0.02
-1.021900e-01,0.02
-1.021800e-01,0.04
-1.021700e-01,0.04
-1.021600e-01,-1.11022e-16
-1.021500e-01,-1.11022e-16
-1.021400e-01,0.04
-1.021300e-01,0.04
-1.021200e-01,0.04
-1.021100e-01,0.04
-1.021000e-01,0.04
-1.020900e-01,0.02
-1.020800e-01,0.04
-1.020700e-01,0.02
-1.020600e-01,-1.11022e-16
-1.020500e-01,-0.02
-1.020400e-01,-1.11022e-16
-1.020300e-01,-1.11022e-16
-1.020200e-01,0.02
-1.020100e-01,-1.11022e-16
-1.020000e-01,-1.11022e-16
-1.019900e-01,-1.11022e-16
-1.019800e-01,-1.11022e-16
-1.019700e-01,-1.11022e-16
-1.019600e-01,-1.11022e-16
-1.019500e-01,-1.11022e-16
-1.019400e-01,-1.11022e-16
-1.019300e-01,-1.11022e-16
-1.019200e-01,-0.02
-1.019100e-01,-1.11022e-16
-1.019000e-01,-0.04
-1.018900e-01,-0.02
-1.018800e-01,-0.04
-1.018700e-01,-0.04
-1.018600e-01,-0.04
-1.018500e-01,-0.06
-1.018400e-01,-0.04
-1.018300e-01,-0.04
-1.018200e-01,-0.04
-1.018100e-01,-0.04
-1.018000e-01,-0.06
-1.017900e-01,-0.06
-1.017800e-01,-0.06
-1.017700e-01,-0.06
-1.017600e-01,-0.06
-1.017500e-01,-0.06
-1.017400e-01,-0.08
-1.017300e-01,-0.08
-1.017200e-01,-0.08
-1.017100e-01,-0.06
-1.017000e-01,-0.06
-1.016900e-01,-0.08
-1.016800e-01,-0.08
-1.016700e-01,-0.08
-1.016600e-01,-0.08
-1.016500e-01,-0.1
-1.016400e-01,-0.1
-1.016300e-01,-0.12
-1.016200e-01,-0.12
-1.016100e-01,-0.08
-1.016000e-01,-0.12
-1.015900e-01,-0.12
-1.015800e-01,-0.1
-1.015700e-01,-0.12
-1.015600e-01,-0.12
-1.015500e-01,-0.14
-1.015400e-01,-0.16
-1.015300e-01,-0.12
-1.015200e-01,-0.14
-1.015100e-01,-0.12
-1.015000e-01,-0.14
-1.014900e-01,-0.16
-1.014800e-01,-0.18
-1.014700e-01,-0.12
-1.014600e-01,-0.16
-1.014500e-01,-0.14
-1.014400e-01,-0.16
-1.014300e-01,-0.18
-1.014200e-01,-0.18
-1.014100e-01,-0.16
-1.014000e-01,-0.18
-1.013900e-01,-0.16
-1.013800e-01,-0.18
-1.013700e-01,-0.18
-1.013600e-01,-0.18
-1.013500e-01,-0.18
-1.013400e-01,-0.18
-1.013300e-01,-0.18
-1.013200e-01,-0.18
-1.013100e-01,-0.16
-1.013000e-01,-0.18
-1.012900e-01,-0.18
-1.012800e-01,-0.18
-1.012700e-01,-0.18
-1.012600e-01,-0.18
-1.012500e-01,-0.18
-1.012400e-01,-0.16
-1.012300e-01,-0.2
-1.012200e-01,-0.18
-1.012100e-01,-0.2
-1.012000e-01,-0.22
-1.011900e-01,-0.18
-1.011800e-01,-0.2
-1.011700e-01,-0.2
-1.011600e-01,-0.2
-1.011500e-01,-0.18
-1.011400e-01,-0.2
-1.011300e-01,-0.2
-1.011200e-01,-0.18
-1.011100e-01,-0.2
-1.011000e-01,-0.2
-1.010900e-01,-0.2
-1.010800e-01,-0.2
-1.010700e-01,-0.22
-1.010600e-01,-0.2
-1.010500e-01,-0.2
-1.010400e-01,-0.2
-1.010300e-01,-0.22
-1.010200e-01,-0.24
-1.010100e-01,-0.24
-1.010000e-01,-0.22
-1.009900e-01,-0.2
-1.009800e-01,-0.2
-1.009700e-01,-0.18
-1.009600e-01,-0.2
-1.009500e-01,-0.22
