Matlab/ECE300/tek0000CH1.csv

Model,MDO4014B-3
Firmware Version,3.20

Waveform Type,ANALOG
Point Format,Y
Horizontal Units,s
Horizontal Scale,0.1
Horizontal Delay,0
Sample Interval,1e-05
Record Length,100000
Gating,0.0% to 100.0%
Probe Attenuation,10
Vertical Units,V
Vertical Offset,0
Vertical Scale,1
Vertical Position,0
,
,
,
Label,
TIME,CH1
-5.000000e-01,0.08
-4.999900e-01,0.36
-4.999800e-01,0.56
-4.999700e-01,0.6
-4.999600e-01,0.64
-4.999500e-01,0.48
-4.999400e-01,0.36
-4.999300e-01,0.08
-4.999200e-01,-0.08
-4.999100e-01,-0.16
-4.999000e-01,-0.16
-4.998900e-01,0
-4.998800e-01,0.12
-4.998700e-01,0.2
-4.998600e-01,0.04
-4.998500e-01,-0.12
-4.998400e-01,-0.24
-4.998300e-01,-0.2
-4.998200e-01,-0.24
-4.998100e-01,-0.36
-4.998000e-01,-0.4
-4.997900e-01,-0.28
-4.997800e-01,-0.16
-4.997700e-01,0.04
-4.997600e-01,0.36
-4.997500e-01,0.72
-4.997400e-01,0.76
-4.997300e-01,0.56
-4.997200e-01,0.24
-4.997100e-01,0.08
-4.997000e-01,0
-4.996900e-01,-0.04
-4.996800e-01,-0.2
-4.996700e-01,-0.24
-4.996600e-01,-0.2
-4.996500e-01,-0.2
-4.996400e-01,-0.04
-4.996300e-01,0.12
-4.996200e-01,0.28
-4.996100e-01,0.28
-4.996000e-01,0.12
-4.995900e-01,-0.04
-4.995800e-01,-0.12
-4.995700e-01,-0.32
-4.995600e-01,-0.36
-4.995500e-01,-0.4
-4.995400e-01,-0.32
-4.995300e-01,-0.16
-4.995200e-01,0
-4.995100e-01,0.36
-4.995000e-01,0.52
-4.994900e-01,0.56
-4.994800e-01,0.44
-4.994700e-01,0.2
-4.994600e-01,0
-4.994500e-01,0
-4.994400e-01,0.04
-4.994300e-01,0.04
-4.994200e-01,0.04
-4.994100e-01,0.04
-4.994000e-01,0.04
-4.993900e-01,0.04
-4.993800e-01,0.08
-4.993700e-01,-0.04
-4.993600e-01,-0.2
-4.993500e-01,-0.36
-4.993400e-01,-0.48
-4.993300e-01,-0.36
-4.993200e-01,-0.16
-4.993100e-01,-0.08
-4.993000e-01,-0.08
-4.992900e-01,-0.08
-4.992800e-01,-0.04
-4.992700e-01,0.04
-4.992600e-01,0.2
-4.992500e-01,0.32
-4.992400e-01,0.48
-4.992300e-01,0.32
-4.992200e-01,0.2
-4.992100e-01,0.08
-4.992000e-01,0.04
-4.991900e-01,0
-4.991800e-01,-0.12
-4.991700e-01,-0.32
-4.991600e-01,-0.44
-4.991500e-01,-0.52
-4.991400e-01,-0.4
-4.991300e-01,-0.16
-4.991200e-01,0.08
-4.991100e-01,0.36
-4.991000e-01,0.48
-4.990900e-01,0.48
-4.990800e-01,0.44
-4.990700e-01,0.4
-4.990600e-01,0.2
-4.990500e-01,-0.04
-4.990400e-01,-0.36
-4.990300e-01,-0.56
-4.990200e-01,-0.72
-4.990100e-01,-0.76
-4.990000e-01,-0.56
-4.989900e-01,-0.24
-4.989800e-01,0
-4.989700e-01,0.32
-4.989600e-01,0.56
-4.989500e-01,0.68
-4.989400e-01,0.64
-4.989300e-01,0.36
-4.989200e-01,0
-4.989100e-01,-0.36
-4.989000e-01,-0.48
-4.988900e-01,-0.44
-4.988800e-01,-0.16
-4.988700e-01,0.12
-4.988600e-01,0.4
-4.988500e-01,0.48
-4.988400e-01,0.24
-4.988300e-01,0
-4.988200e-01,-0.16
-4.988100e-01,-0.32
-4.988000e-01,-0.52
-4.987900e-01,-0.56
-4.987800e-01,-0.48
-4.987700e-01,-0.28
-4.987600e-01,0.04
-4.987500e-01,0.44
-4.987400e-01,0.72
-4.987300e-01,0.76
-4.987200e-01,0.56
-4.987100e-01,0.16
-4.987000e-01,-0.24
-4.986900e-01,-0.44
-4.986800e-01,-0.68
-4.986700e-01,-0.8
-4.986600e-01,-0.76
-4.986500e-01,-0.56
-4.986400e-01,-0.32
-4.986300e-01,0.04
-4.986200e-01,0.4
-4.986100e-01,0.68
-4.986000e-01,0.68
-4.985900e-01,0.52
-4.985800e-01,0.36
-4.985700e-01,0.2
-4.985600e-01,0.2
-4.985500e-01,0.08
-4.985400e-01,0
-4.985300e-01,-0.12
-4.985200e-01,-0.24
-4.985100e-01,-0.4
-4.985000e-01,-0.36
-4.984900e-01,-0.32
-4.984800e-01,-0.32
-4.984700e-01,-0.44
-4.984600e-01,-0.56
-4.984500e-01,-0.52
-4.984400e-01,-0.24
-4.984300e-01,0.08
-4.984200e-01,0.36
-4.984100e-01,0.48
-4.984000e-01,0.44
-4.983900e-01,0.28
-4.983800e-01,0.12
-4.983700e-01,0.04
-4.983600e-01,-0.04
-4.983500e-01,-0.08
-4.983400e-01,-0.24
-4.983300e-01,-0.36
-4.983200e-01,-0.24
-4.983100e-01,-0.04
-4.983000e-01,0.12
-4.982900e-01,0.12
-4.982800e-01,0.12
-4.982700e-01,0.08
-4.982600e-01,0
-4.982500e-01,-0.12
-4.982400e-01,-0.12
-4.982300e-01,-0.12
-4.982200e-01,-0.12
-4.982100e-01,-0.12
-4.982000e-01,-0.08
-4.981900e-01,0.04
-4.981800e-01,0.2
-4.981700e-01,0.12
-4.981600e-01,-0.04
-4.981500e-01,-0.24
-4.981400e-01,-0.44
-4.981300e-01,-0.52
-4.981200e-01,-0.48
-4.981100e-01,-0.28
-4.981000e-01,0
-4.980900e-01,0.16
-4.980800e-01,0.36
-4.980700e-01,0.4
-4.980600e-01,0.56
-4.980500e-01,0.4
-4.980400e-01,0.08
-4.980300e-01,-0.28
-4.980200e-01,-0.68
-4.980100e-01,-0.88
-4.980000e-01,-0.88
-4.979900e-01,-0.64
-4.979800e-01,-0.28
-4.979700e-01,0
-4.979600e-01,0.2
-4.979500e-01,0.24
-4.979400e-01,0.28
-4.979300e-01,0.2
-4.979200e-01,0.12
-4.979100e-01,-0.08
-4.979000e-01,-0.24
-4.978900e-01,-0.36
-4.978800e-01,-0.24
-4.978700e-01,-0.04
-4.978600e-01,0.32
-4.978500e-01,0.6
-4.978400e-01,0.76
-4.978300e-01,0.6
-4.978200e-01,0.28
-4.978100e-01,0
-4.978000e-01,-0.24
-4.977900e-01,-0.6
-4.977800e-01,-0.88
-4.977700e-01,-0.92
-4.977600e-01,-0.8
-4.977500e-01,-0.44
-4.977400e-01,-0.04
-4.977300e-01,0.36
-4.977200e-01,0.68
-4.977100e-01,0.84
-4.977000e-01,0.68
-4.976900e-01,0.52
-4.976800e-01,0.4
-4.976700e-01,0.2
-4.976600e-01,0
-4.976500e-01,-0.28
-4.976400e-01,-0.4
-4.976300e-01,-0.4
-4.976200e-01,-0.36
-4.976100e-01,-0.16
-4.976000e-01,0
-4.975900e-01,0.08
-4.975800e-01,0.04
-4.975700e-01,-0.04
-4.975600e-01,-0.08
-4.975500e-01,-0.04
-4.975400e-01,0
-4.975300e-01,0.04
-4.975200e-01,0.12
-4.975100e-01,0.12
-4.975000e-01,0.12
-4.974900e-01,0.12
-4.974800e-01,0.08
-4.974700e-01,0
-4.974600e-01,-0.16
-4.974500e-01,-0.24
-4.974400e-01,-0.32
-4.974300e-01,-0.08
-4.974200e-01,0.08
-4.974100e-01,0.12
-4.974000e-01,0.08
-4.973900e-01,0.04
-4.973800e-01,-0.08
-4.973700e-01,-0.2
-4.973600e-01,-0.24
-4.973500e-01,-0.28
-4.973400e-01,-0.24
-4.973300e-01,-0.2
-4.973200e-01,-0.16
-4.973100e-01,0.04
-4.973000e-01,0.32
-4.972900e-01,0.52
-4.972800e-01,0.52
-4.972700e-01,0.28
-4.972600e-01,0
-4.972500e-01,-0.24
-4.972400e-01,-0.32
-4.972300e-01,-0.28
-4.972200e-01,-0.08
-4.972100e-01,-0.04
-4.972000e-01,0
-4.971900e-01,0.12
-4.971800e-01,0.24
-4.971700e-01,0.48
-4.971600e-01,0.52
-4.971500e-01,0.36
-4.971400e-01,0.12
-4.971300e-01,-0.12
-4.971200e-01,-0.44
-4.971100e-01,-0.52
-4.971000e-01,-0.44
-4.970900e-01,-0.4
-4.970800e-01,-0.24
-4.970700e-01,-0.12
-4.970600e-01,-0.04
-4.970500e-01,0.16
-4.970400e-01,0.32
-4.970300e-01,0.4
-4.970200e-01,0.4
-4.970100e-01,0.32
-4.970000e-01,0.32
-4.969900e-01,0.32
-4.969800e-01,0.36
-4.969700e-01,0.28
-4.969600e-01,0.2
-4.969500e-01,0
-4.969400e-01,-0.16
-4.969300e-01,-0.36
-4.969200e-01,-0.28
-4.969100e-01,-0.24
-4.969000e-01,-0.2
-4.968900e-01,-0.24
-4.968800e-01,-0.24
-4.968700e-01,-0.24
-4.968600e-01,-0.16
-4.968500e-01,-0.12
-4.968400e-01,-0.08
-4.968300e-01,-0.12
-4.968200e-01,-0.04
-4.968100e-01,0
-4.968000e-01,0.2
-4.967900e-01,0.4
-4.967800e-01,0.48
-4.967700e-01,0.4
-4.967600e-01,0.32
-4.967500e-01,0.2
-4.967400e-01,0.08
-4.967300e-01,0.08
-4.967200e-01,-0.04
-4.967100e-01,-0.12
-4.967000e-01,-0.4
-4.966900e-01,-0.64
-4.966800e-01,-0.64
-4.966700e-01,-0.36
-4.966600e-01,-0.04
-4.966500e-01,0.2
-4.966400e-01,0.44
-4.966300e-01,0.6
-4.966200e-01,0.52
-4.966100e-01,0.4
-4.966000e-01,0.24
-4.965900e-01,0.04
-4.965800e-01,-0.12
-4.965700e-01,-0.32
-4.965600e-01,-0.4
-4.965500e-01,-0.28
-4.965400e-01,-0.08
-4.965300e-01,0.04
-4.965200e-01,0.2
-4.965100e-01,0.24
-4.965000e-01,0.24
-4.964900e-01,0.2
-4.964800e-01,0.16
-4.964700e-01,0.2
-4.964600e-01,0.2
-4.964500e-01,0.2
-4.964400e-01,0.12
-4.964300e-01,0.04
-4.964200e-01,0
-4.964100e-01,-0.04
-4.964000e-01,-0.16
-4.963900e-01,-0.28
-4.963800e-01,-0.28
-4.963700e-01,-0.28
-4.963600e-01,-0.16
-4.963500e-01,0.08
-4.963400e-01,0.28
-4.963300e-01,0.4
-4.963200e-01,0.36
-4.963100e-01,0.36
-4.963000e-01,0.24
-4.962900e-01,0.28
-4.962800e-01,0.32
-4.962700e-01,0.16
-4.962600e-01,-0.04
-4.962500e-01,-0.24
-4.962400e-01,-0.36
-4.962300e-01,-0.36
-4.962200e-01,-0.28
-4.962100e-01,-0.12
-4.962000e-01,-0.04
-4.961900e-01,0
-4.961800e-01,0.04
-4.961700e-01,0.2
-4.961600e-01,0.32
-4.961500e-01,0.36
-4.961400e-01,0.24
-4.961300e-01,0.04
-4.961200e-01,-0.12
-4.961100e-01,-0.12
-4.961000e-01,-0.08
-4.960900e-01,0.12
-4.960800e-01,0.24
-4.960700e-01,0.36
-4.960600e-01,0.36
-4.960500e-01,0.2
-4.960400e-01,0.12
-4.960300e-01,-0.04
-4.960200e-01,-0.28
-4.960100e-01,-0.56
-4.960000e-01,-0.68
-4.959900e-01,-0.64
-4.959800e-01,-0.44
-4.959700e-01,-0.08
-4.959600e-01,0.24
-4.959500e-01,0.48
-4.959400e-01,0.52
-4.959300e-01,0.4
-4.959200e-01,0.36
-4.959100e-01,0.32
-4.959000e-01,0.32
-4.958900e-01,0.2
-4.958800e-01,0.04
-4.958700e-01,-0.16
-4.958600e-01,-0.32
-4.958500e-01,-0.4
-4.958400e-01,-0.4
-4.958300e-01,-0.24
-4.958200e-01,-0.04
-4.958100e-01,0.04
-4.958000e-01,0.2
-4.957900e-01,0.36
-4.957800e-01,0.48
-4.957700e-01,0.44
-4.957600e-01,0.24
-4.957500e-01,-0.04
-4.957400e-01,-0.24
-4.957300e-01,-0.36
-4.957200e-01,-0.32
-4.957100e-01,-0.32
-4.957000e-01,-0.16
-4.956900e-01,-0.12
-4.956800e-01,-0.12
-4.956700e-01,0
-4.956600e-01,0.2
-4.956500e-01,0.4
-4.956400e-01,0.44
-4.956300e-01,0.28
-4.956200e-01,0.08
-4.956100e-01,0
-4.956000e-01,0
-4.955900e-01,0.04
-4.955800e-01,0.28
-4.955700e-01,0.28
-4.955600e-01,0.2
-4.955500e-01,-0.04
-4.955400e-01,-0.16
-4.955300e-01,-0.2
-4.955200e-01,-0.24
-4.955100e-01,-0.36
-4.955000e-01,-0.4
-4.954900e-01,-0.48
-4.954800e-01,-0.44
-4.954700e-01,-0.28
-4.954600e-01,0
-4.954500e-01,0.36
-4.954400e-01,0.6
-4.954300e-01,0.6
-4.954200e-01,0.48
-4.954100e-01,0.4
-4.954000e-01,0.2
-4.953900e-01,-0.12
-4.953800e-01,-0.48
-4.953700e-01,-0.64
-4.953600e-01,-0.6
-4.953500e-01,-0.56
-4.953400e-01,-0.28
-4.953300e-01,0
-4.953200e-01,0.2
-4.953100e-01,0.28
-4.953000e-01,0.2
-4.952900e-01,0.24
-4.952800e-01,0.4
-4.952700e-01,0.32
-4.952600e-01,0.24
-4.952500e-01,-0.04
-4.952400e-01,-0.32
-4.952300e-01,-0.6
-4.952200e-01,-0.76
-4.952100e-01,-0.68
-4.952000e-01,-0.44
-4.951900e-01,-0.16
-4.951800e-01,0.04
-4.951700e-01,0.16
-4.951600e-01,0.4
-4.951500e-01,0.52
-4.951400e-01,0.4
-4.951300e-01,0.08
-4.951200e-01,-0.24
-4.951100e-01,-0.4
-4.951000e-01,-0.32
-4.950900e-01,-0.16
-4.950800e-01,0.04
-4.950700e-01,0.36
-4.950600e-01,0.4
-4.950500e-01,0.36
-4.950400e-01,0.16
-4.950300e-01,0.2
-4.950200e-01,0.16
-4.950100e-01,-0.04
-4.950000e-01,-0.28
-4.949900e-01,-0.52
-4.949800e-01,-0.64
-4.949700e-01,-0.76
-4.949600e-01,-0.56
-4.949500e-01,-0.24
-4.949400e-01,0.16
-4.949300e-01,0.4
-4.949200e-01,0.52
-4.949100e-01,0.64
-4.949000e-01,0.6
-4.948900e-01,0.52
-4.948800e-01,0.32
-4.948700e-01,-0.04
-4.948600e-01,-0.36
-4.948500e-01,-0.64
-4.948400e-01,-0.76
-4.948300e-01,-0.72
-4.948200e-01,-0.56
-4.948100e-01,-0.36
-4.948000e-01,-0.16
-4.947900e-01,0
-4.947800e-01,0.24
-4.947700e-01,0.48
-4.947600e-01,0.48
-4.947500e-01,0.32
-4.947400e-01,0.08
-4.947300e-01,-0.12
-4.947200e-01,-0.24
-4.947100e-01,-0.16
-4.947000e-01,-0.08
-4.946900e-01,0
-4.946800e-01,-0.04
-4.946700e-01,-0.16
-4.946600e-01,-0.24
-4.946500e-01,-0.16
-4.946400e-01,-0.08
-4.946300e-01,-0.04
-4.946200e-01,-0.12
-4.946100e-01,-0.12
-4.946000e-01,-0.2
-4.945900e-01,-0.16
-4.945800e-01,-0.04
-4.945700e-01,0.04
-4.945600e-01,0.2
-4.945500e-01,0.32
-4.945400e-01,0.32
-4.945300e-01,0.36
-4.945200e-01,0.4
-4.945100e-01,0.24
-4.945000e-01,-0.04
-4.944900e-01,-0.4
-4.944800e-01,-0.56
-4.944700e-01,-0.64
-4.944600e-01,-0.56
-4.944500e-01,-0.32
-4.944400e-01,-0.08
-4.944300e-01,0.12
-4.944200e-01,0.2
-4.944100e-01,0.28
-4.944000e-01,0.44
-4.943900e-01,0.52
-4.943800e-01,0.32
-4.943700e-01,0.04
-4.943600e-01,-0.32
-4.943500e-01,-0.56
-4.943400e-01,-0.64
-4.943300e-01,-0.56
-4.943200e-01,-0.24
-4.943100e-01,-0.04
-4.943000e-01,0.04
-4.942900e-01,0
-4.942800e-01,-0.04
-4.942700e-01,0.08
-4.942600e-01,0.12
-4.942500e-01,0.12
-4.942400e-01,0
-4.942300e-01,-0.04
-4.942200e-01,-0.12
-4.942100e-01,-0.12
-4.942000e-01,0.04
-4.941900e-01,0.16
-4.941800e-01,0.36
-4.941700e-01,0.32
-4.941600e-01,0.2
-4.941500e-01,0.12
-4.941400e-01,-0.04
-4.941300e-01,-0.2
-4.941200e-01,-0.48
-4.941100e-01,-0.64
-4.941000e-01,-0.8
-4.940900e-01,-0.8
-4.940800e-01,-0.64
-4.940700e-01,-0.44
-4.940600e-01,-0.12
-4.940500e-01,0.12
-4.940400e-01,0.36
-4.940300e-01,0.48
-4.940200e-01,0.6
-4.940100e-01,0.72
-4.940000e-01,0.6
-4.939900e-01,0.32
-4.939800e-01,0.12
-4.939700e-01,-0.04
-4.939600e-01,-0.28
-4.939500e-01,-0.28
-4.939400e-01,-0.28
-4.939300e-01,-0.32
-4.939200e-01,-0.4
-4.939100e-01,-0.52
-4.939000e-01,-0.56
-4.938900e-01,-0.24
-4.938800e-01,0
-4.938700e-01,0.2
-4.938600e-01,0.32
-4.938500e-01,0.4
-4.938400e-01,0.36
-4.938300e-01,0.28
-4.938200e-01,0.2
-4.938100e-01,0.08
-4.938000e-01,0
-4.937900e-01,-0.16
-4.937800e-01,-0.4
-4.937700e-01,-0.44
-4.937600e-01,-0.32
-4.937500e-01,-0.24
-4.937400e-01,-0.08
-4.937300e-01,0.08
-4.937200e-01,0.24
-4.937100e-01,0.36
-4.937000e-01,0.48
-4.936900e-01,0.52
-4.936800e-01,0.4
-4.936700e-01,0.16
-4.936600e-01,-0.12
-4.936500e-01,-0.36
-4.936400e-01,-0.32
-4.936300e-01,-0.28
-4.936200e-01,-0.24
-4.936100e-01,-0.28
-4.936000e-01,-0.24
-4.935900e-01,-0.2
-4.935800e-01,-0.12
-4.935700e-01,0.04
-4.935600e-01,0.16
-4.935500e-01,0.16
-4.935400e-01,0.04
-4.935300e-01,-0.2
-4.935200e-01,-0.24
-4.935100e-01,-0.08
-4.935000e-01,0.08
-4.934900e-01,0.2
-4.934800e-01,0.28
-4.934700e-01,0.2
-4.934600e-01,0.08
-4.934500e-01,-0.04
-4.934400e-01,-0.2
-4.934300e-01,-0.32
-4.934200e-01,-0.44
-4.934100e-01,-0.48
-4.934000e-01,-0.56
-4.933900e-01,-0.36
-4.933800e-01,-0.08
-4.933700e-01,0
-4.933600e-01,0.08
-4.933500e-01,0.12
-4.933400e-01,0.12
-4.933300e-01,0.16
-4.933200e-01,0.24
-4.933100e-01,0.4
-4.933000e-01,0.56
-4.932900e-01,0.52
-4.932800e-01,0.44
-4.932700e-01,0.2
-4.932600e-01,0.2
-4.932500e-01,-0.04
-4.932400e-01,-0.44
-4.932300e-01,-0.92
-4.932200e-01,-1.2
-4.932100e-01,-1.24
-4.932000e-01,-0.96
-4.931900e-01,-0.4
-4.931800e-01,0.24
-4.931700e-01,0.84
-4.931600e-01,1.12
-4.931500e-01,1
-4.931400e-01,0.8
-4.931300e-01,0.52
-4.931200e-01,0.16
-4.931100e-01,-0.16
-4.931000e-01,-0.52
-4.930900e-01,-0.72
-4.930800e-01,-0.76
-4.930700e-01,-0.6
-4.930600e-01,-0.32
-4.930500e-01,0
-4.930400e-01,0.24
-4.930300e-01,0.28
-4.930200e-01,0.36
-4.930100e-01,0.4
-4.930000e-01,0.32
-4.929900e-01,0.08
-4.929800e-01,-0.12
-4.929700e-01,-0.36
-4.929600e-01,-0.48
-4.929500e-01,-0.44
-4.929400e-01,-0.36
-4.929300e-01,-0.12
-4.929200e-01,0
-4.929100e-01,0.04
-4.929000e-01,0
-4.928900e-01,0
-4.928800e-01,0.16
-4.928700e-01,0.2
-4.928600e-01,0.24
-4.928500e-01,0.2
-4.928400e-01,0.12
-4.928300e-01,0
-4.928200e-01,0
-4.928100e-01,0.08
-4.928000e-01,0.12
-4.927900e-01,0.08
-4.927800e-01,-0.04
-4.927700e-01,-0.2
-4.927600e-01,-0.28
-4.927500e-01,-0.12
-4.927400e-01,-0.04
-4.927300e-01,0.04
-4.927200e-01,0.12
-4.927100e-01,0.16
-4.927000e-01,0.16
-4.926900e-01,0.16
-4.926800e-01,0.12
-4.926700e-01,0.08
-4.926600e-01,-0.04
-4.926500e-01,-0.16
-4.926400e-01,-0.24
-4.926300e-01,-0.08
-4.926200e-01,0.24
-4.926100e-01,0.4
-4.926000e-01,0.52
-4.925900e-01,0.48
-4.925800e-01,0.28
-4.925700e-01,0.04
-4.925600e-01,-0.12
-4.925500e-01,-0.24
-4.925400e-01,-0.32
-4.925300e-01,-0.32
-4.925200e-01,-0.24
-4.925100e-01,-0.12
-4.925000e-01,0.12
-4.924900e-01,0.32
-4.924800e-01,0.36
-4.924700e-01,0.24
-4.924600e-01,0.12
-4.924500e-01,-0.04
-4.924400e-01,-0.28
-4.924300e-01,-0.4
-4.924200e-01,-0.48
-4.924100e-01,-0.56
-4.924000e-01,-0.6
-4.923900e-01,-0.4
-4.923800e-01,-0.12
-4.923700e-01,0.36
-4.923600e-01,0.68
-4.923500e-01,0.72
-4.923400e-01,0.56
-4.923300e-01,0.2
-4.923200e-01,0.04
-4.923100e-01,-0.08
-4.923000e-01,-0.08
-4.922900e-01,-0.04
-4.922800e-01,-0.12
-4.922700e-01,-0.28
-4.922600e-01,-0.44
-4.922500e-01,-0.36
-4.922400e-01,-0.16
-4.922300e-01,-0.08
-4.922200e-01,-0.12
-4.922100e-01,-0.08
-4.922000e-01,-0.12
-4.921900e-01,-0.08
-4.921800e-01,0.08
-4.921700e-01,0.2
-4.921600e-01,0.4
-4.921500e-01,0.32
-4.921400e-01,0.12
-4.921300e-01,-0.04
-4.921200e-01,-0.12
-4.921100e-01,-0.12
-4.921000e-01,-0.12
-4.920900e-01,-0.12
-4.920800e-01,-0.08
-4.920700e-01,0
-4.920600e-01,0.12
-4.920500e-01,0.32
-4.920400e-01,0.44
-4.920300e-01,0.48
-4.920200e-01,0.32
-4.920100e-01,0.04
-4.920000e-01,-0.16
-4.919900e-01,-0.36
-4.919800e-01,-0.44
-4.919700e-01,-0.48
-4.919600e-01,-0.44
-4.919500e-01,-0.24
-4.919400e-01,0
-4.919300e-01,0.2
-4.919200e-01,0.4
-4.919100e-01,0.44
-4.919000e-01,0.24
-4.918900e-01,-0.04
-4.918800e-01,-0.32
-4.918700e-01,-0.44
-4.918600e-01,-0.32
-4.918500e-01,-0.24
-4.918400e-01,-0.04
-4.918300e-01,0.2
-4.918200e-01,0.36
-4.918100e-01,0.52
-4.918000e-01,0.52
-4.917900e-01,0.4
-4.917800e-01,0.12
-4.917700e-01,-0.12
-4.917600e-01,-0.44
-4.917500e-01,-0.56
-4.917400e-01,-0.52
-4.917300e-01,-0.32
-4.917200e-01,-0.28
-4.917100e-01,-0.28
-4.917000e-01,-0.36
-4.916900e-01,-0.4
-4.916800e-01,-0.32
-4.916700e-01,-0.12
-4.916600e-01,0.2
-4.916500e-01,0.4
-4.916400e-01,0.64
-4.916300e-01,0.68
-4.916200e-01,0.76
-4.916100e-01,0.68
-4.916000e-01,0.48
-4.915900e-01,0.04
-4.915800e-01,-0.36
-4.915700e-01,-0.76
-4.915600e-01,-1.04
-4.915500e-01,-1.08
-4.915400e-01,-0.96
-4.915300e-01,-0.64
-4.915200e-01,-0.28
-4.915100e-01,0.08
-4.915000e-01,0.52
-4.914900e-01,1
-4.914800e-01,1.24
-4.914700e-01,1
-4.914600e-01,0.48
-4.914500e-01,-0.12
-4.914400e-01,-0.64
-4.914300e-01,-1
-4.914200e-01,-1
-4.914100e-01,-0.72
-4.914000e-01,-0.4
-4.913900e-01,0.04
-4.913800e-01,0.28
-4.913700e-01,0.6
-4.913600e-01,0.76
-4.913500e-01,0.76
-4.913400e-01,0.48
-4.913300e-01,0.04
-4.913200e-01,-0.36
-4.913100e-01,-0.68
-4.913000e-01,-0.72
-4.912900e-01,-0.6
-4.912800e-01,-0.32
-4.912700e-01,-0.04
-4.912600e-01,0.16
-4.912500e-01,0.32
-4.912400e-01,0.6
-4.912300e-01,0.72
-4.912200e-01,0.48
-4.912100e-01,0.12
-4.912000e-01,-0.28
-4.911900e-01,-0.64
-4.911800e-01,-0.8
-4.911700e-01,-0.72
-4.911600e-01,-0.4
-4.911500e-01,0
-4.911400e-01,0.28
-4.911300e-01,0.48
-4.911200e-01,0.52
-4.911100e-01,0.6
-4.911000e-01,0.6
-4.910900e-01,0.36
-4.910800e-01,0.08
-4.910700e-01,-0.24
-4.910600e-01,-0.56
-4.910500e-01,-0.88
-4.910400e-01,-1
-4.910300e-01,-0.88
-4.910200e-01,-0.68
-4.910100e-01,-0.4
-4.910000e-01,-0.04
-4.909900e-01,0.4
-4.909800e-01,0.84
-4.909700e-01,0.96
-4.909600e-01,0.84
-4.909500e-01,0.64
-4.909400e-01,0.44
-4.909300e-01,0.24
-4.909200e-01,0.04
-4.909100e-01,-0.04
-4.909000e-01,-0.24
-4.908900e-01,-0.52
-4.908800e-01,-0.84
-4.908700e-01,-1.04
-4.908600e-01,-0.88
-4.908500e-01,-0.6
-4.908400e-01,-0.36
-4.908300e-01,-0.12
-4.908200e-01,0.08
-4.908100e-01,0.2
-4.908000e-01,0.28
-4.907900e-01,0.48
-4.907800e-01,0.6
-4.907700e-01,0.6
-4.907600e-01,0.44
-4.907500e-01,0.2
-4.907400e-01,0.12
-4.907300e-01,0.16
-4.907200e-01,0.16
-4.907100e-01,0
-4.907000e-01,-0.16
-4.906900e-01,-0.48
-4.906800e-01,-0.76
-4.906700e-01,-0.88
-4.906600e-01,-0.8
-4.906500e-01,-0.56
-4.906400e-01,-0.36
-4.906300e-01,-0.12
-4.906200e-01,0.12
-4.906100e-01,0.4
-4.906000e-01,0.6
-4.905900e-01,0.64
-4.905800e-01,0.44
-4.905700e-01,0.12
-4.905600e-01,-0.04
-4.905500e-01,-0.2
-4.905400e-01,-0.24
-4.905300e-01,-0.28
-4.905200e-01,-0.24
-4.905100e-01,-0.2
-4.905000e-01,-0.28
-4.904900e-01,-0.32
-4.904800e-01,-0.08
-4.904700e-01,0.04
-4.904600e-01,0.16
-4.904500e-01,0.12
-4.904400e-01,0.12
-4.904300e-01,0.08
-4.904200e-01,0.08
-4.904100e-01,0.12
-4.904000e-01,0.2
-4.903900e-01,0.08
-4.903800e-01,-0.04
-4.903700e-01,-0.24
-4.903600e-01,-0.32
-4.903500e-01,-0.28
-4.903400e-01,-0.28
-4.903300e-01,-0.4
-4.903200e-01,-0.52
-4.903100e-01,-0.6
-4.903000e-01,-0.6
-4.902900e-01,-0.4
-4.902800e-01,-0.04
-4.902700e-01,0.4
-4.902600e-01,0.88
-4.902500e-01,1.04
-4.902400e-01,0.92
-4.902300e-01,0.72
-4.902200e-01,0.4
-4.902100e-01,-0.04
-4.902000e-01,-0.56
-4.901900e-01,-0.88
-4.901800e-01,-1.08
-4.901700e-01,-1.08
-4.901600e-01,-0.8
-4.901500e-01,-0.44
-4.901400e-01,-0.04
-4.901300e-01,0.16
-4.901200e-01,0.28
-4.901100e-01,0.32
-4.901000e-01,0.36
-4.900900e-01,0.36
-4.900800e-01,0.28
-4.900700e-01,0.12
-4.900600e-01,0.04
-4.900500e-01,-0.04
-4.900400e-01,-0.04
-4.900300e-01,0
-4.900200e-01,0.08
-4.900100e-01,0.04
-4.900000e-01,-0.12
-4.899900e-01,-0.32
-4.899800e-01,-0.44
-4.899700e-01,-0.44
-4.899600e-01,-0.44
-4.899500e-01,-0.44
-4.899400e-01,-0.4
-4.899300e-01,-0.28
-4.899200e-01,-0.04
-4.899100e-01,0.24
-4.899000e-01,0.56
-4.898900e-01,0.76
-4.898800e-01,0.76
-4.898700e-01,0.56
-4.898600e-01,0.28
-4.898500e-01,0.08
-4.898400e-01,-0.16
-4.898300e-01,-0.36
-4.898200e-01,-0.68
-4.898100e-01,-0.84
-4.898000e-01,-0.88
-4.897900e-01,-0.8
-4.897800e-01,-0.44
-4.897700e-01,-0.08
-4.897600e-01,0.28
-4.897500e-01,0.44
