Matlab/ECE300/tek0007CH1.csv

Model,MDO4014B-3
Firmware Version,3.20

Waveform Type,ANALOG
Point Format,Y
Horizontal Units,s
Horizontal Scale,0.2
Horizontal Delay,1.5
Sample Interval,2e-05
Record Length,100000
Gating,0.0% to 100.0%
Probe Attenuation,10
Vertical Units,V
Vertical Offset,0
Vertical Scale,0.5
Vertical Position,1.4
,
,
,
Label,
TIME,CH1
5.000000e-01,-0.34
5.000200e-01,-0.12
5.000400e-01,0.36
5.000600e-01,0.64
5.000800e-01,0.34
5.001000e-01,-0.2
5.001200e-01,-0.58
5.001400e-01,-0.64
5.001600e-01,-0.22
5.001800e-01,0.28
5.002000e-01,0.52
5.002200e-01,0.4
5.002400e-01,-0.16
5.002600e-01,-0.54
5.002800e-01,-0.52
5.003000e-01,-0.14
5.003200e-01,0.14
5.003400e-01,0.4
5.003600e-01,0.42
5.003800e-01,-1.11022e-16
5.004000e-01,-0.44
5.004200e-01,-0.52
5.004400e-01,-0.1
5.004600e-01,0.36
5.004800e-01,0.52
5.005000e-01,0.42
5.005200e-01,-0.04
5.005400e-01,-0.48
5.005600e-01,-0.64
5.005800e-01,-0.44
5.006000e-01,-0.02
5.006200e-01,0.34
5.006400e-01,0.32
5.006600e-01,0.1
5.006800e-01,-0.06
5.007000e-01,-1.11022e-16
5.007200e-01,-0.06
5.007400e-01,-0.38
5.007600e-01,-0.42
5.007800e-01,-0.26
5.008000e-01,0.04
5.008200e-01,0.36
5.008400e-01,0.56
5.008600e-01,0.4
5.008800e-01,0.06
5.009000e-01,-0.38
5.009200e-01,-0.6
5.009400e-01,-0.62
5.009600e-01,-0.28
5.009800e-01,0.3
5.010000e-01,0.56
5.010200e-01,0.48
5.010400e-01,0.3
5.010600e-01,-0.32
5.010800e-01,-0.66
5.011000e-01,-0.32
5.011200e-01,-0.02
5.011400e-01,0.2
5.011600e-01,0.3
5.011800e-01,0.22
5.012000e-01,-0.06
5.012200e-01,-0.18
5.012400e-01,-0.34
5.012600e-01,-0.14
5.012800e-01,0.18
5.013000e-01,0.14
5.013200e-01,-1.11022e-16
5.013400e-01,-0.28
5.013600e-01,-0.32
5.013800e-01,-0.02
5.014000e-01,0.36
5.014200e-01,0.34
5.014400e-01,0.02
5.014600e-01,-0.26
5.014800e-01,-0.24
5.015000e-01,-0.18
5.015200e-01,0.16
5.015400e-01,0.26
5.015600e-01,0.02
5.015800e-01,-0.06
5.016000e-01,0.04
5.016200e-01,-0.02
5.016400e-01,-0.18
5.016600e-01,-0.06
5.016800e-01,-0.24
5.017000e-01,-0.26
5.017200e-01,0.06
5.017400e-01,0.36
5.017600e-01,0.34
5.017800e-01,-0.1
5.018000e-01,-0.36
5.018200e-01,-0.32
5.018400e-01,-0.28
5.018600e-01,-0.04
5.018800e-01,0.2
5.019000e-01,0.2
5.019200e-01,0.08
5.019400e-01,-1.11022e-16
5.019600e-01,0.06
5.019800e-01,-0.2
5.020000e-01,-0.32
5.020200e-01,-0.22
5.020400e-01,-0.12
5.020600e-01,0.12
5.020800e-01,0.42
5.021000e-01,0.42
5.021200e-01,0.2
5.021400e-01,-0.14
5.021600e-01,-0.42
5.021800e-01,-0.54
5.022000e-01,-0.4
5.022200e-01,0.1
5.022400e-01,0.56
5.022600e-01,0.58
5.022800e-01,0.2
5.023000e-01,-0.2
5.023200e-01,-0.52
5.023400e-01,-0.6
5.023600e-01,-0.28
5.023800e-01,0.1
5.024000e-01,0.52
5.024200e-01,0.48
5.024400e-01,0.14
5.024600e-01,-0.18
5.024800e-01,-0.4
5.025000e-01,-0.5
5.025200e-01,-0.1
5.025400e-01,0.3
5.025600e-01,0.38
5.025800e-01,0.2
5.026000e-01,0.08
5.026200e-01,-0.22
5.026400e-01,-0.46
5.026600e-01,-0.28
5.026800e-01,0.06
5.027000e-01,0.22
5.027200e-01,0.18
5.027400e-01,0.2
5.027600e-01,0.06
5.027800e-01,-0.28
5.028000e-01,-0.42
5.028200e-01,-0.28
5.028400e-01,0.04
5.028600e-01,0.1
5.028800e-01,0.22
5.029000e-01,0.26
5.029200e-01,0.04
5.029400e-01,-0.22
5.029600e-01,-0.28
5.029800e-01,-0.28
5.030000e-01,-0.16
5.030200e-01,0.2
5.030400e-01,0.26
5.030600e-01,0.08
5.030800e-01,0.04
5.031000e-01,-0.24
5.031200e-01,-0.46
5.031400e-01,-0.08
5.031600e-01,0.4
5.031800e-01,0.42
5.032000e-01,0.32
5.032200e-01,-0.12
5.032400e-01,-0.62
5.032600e-01,-0.54
5.032800e-01,-0.02
5.033000e-01,0.36
5.033200e-01,0.56
5.033400e-01,0.42
5.033600e-01,0.02
5.033800e-01,-0.22
5.034000e-01,-0.4
5.034200e-01,-0.48
5.034400e-01,-0.12
5.034600e-01,0.34
5.034800e-01,0.6
5.035000e-01,0.48
5.035200e-01,-1.11022e-16
5.035400e-01,-0.38
5.035600e-01,-0.46
5.035800e-01,-0.34
5.036000e-01,0.02
5.036200e-01,0.3
5.036400e-01,0.34
5.036600e-01,0.06
5.036800e-01,-0.12
5.037000e-01,-0.2
5.037200e-01,-0.14
5.037400e-01,-0.14
5.037600e-01,-0.1
5.037800e-01,-0.06
5.038000e-01,0.2
5.038200e-01,0.4
5.038400e-01,0.28
5.038600e-01,0.04
5.038800e-01,-0.2
5.039000e-01,-0.4
5.039200e-01,-0.36
5.039400e-01,-0.08
5.039600e-01,0.38
5.039800e-01,0.54
5.040000e-01,0.16
5.040200e-01,-0.22
5.040400e-01,-0.4
5.040600e-01,-0.4
5.040800e-01,-0.22
5.041000e-01,0.1
5.041200e-01,0.34
5.041400e-01,0.26
5.041600e-01,-0.02
5.041800e-01,-0.12
5.042000e-01,-0.06
5.042200e-01,0.1
5.042400e-01,0.04
5.042600e-01,-0.08
5.042800e-01,-0.18
5.043000e-01,0.02
5.043200e-01,0.12
5.043400e-01,0.14
5.043600e-01,0.08
5.043800e-01,0.04
5.044000e-01,-0.04
5.044200e-01,-0.04
5.044400e-01,-0.04
5.044600e-01,-0.08
5.044800e-01,-0.16
5.045000e-01,-0.02
5.045200e-01,0.26
5.045400e-01,0.3
5.045600e-01,0.12
5.045800e-01,-0.1
5.046000e-01,-0.2
5.046200e-01,-0.42
5.046400e-01,-0.4
5.046600e-01,-0.08
5.046800e-01,0.34
5.047000e-01,0.56
5.047200e-01,0.44
5.047400e-01,-0.06
5.047600e-01,-0.5
5.047800e-01,-0.46
5.048000e-01,-0.2
5.048200e-01,0.06
5.048400e-01,0.3
5.048600e-01,0.44
5.048800e-01,0.38
5.049000e-01,0.12
5.049200e-01,-0.28
5.049400e-01,-0.5
5.049600e-01,-0.46
5.049800e-01,-0.04
5.050000e-01,0.52
5.050200e-01,0.56
5.050400e-01,0.3
5.050600e-01,-0.2
5.050800e-01,-0.48
5.051000e-01,-0.4
5.051200e-01,-0.02
5.051400e-01,0.34
5.051600e-01,0.4
5.051800e-01,0.18
5.052000e-01,-0.2
5.052200e-01,-0.34
5.052400e-01,-0.14
5.052600e-01,0.12
5.052800e-01,0.22
5.053000e-01,0.2
5.053200e-01,-0.08
5.053400e-01,-0.28
5.053600e-01,-0.36
5.053800e-01,-0.22
5.054000e-01,0.18
5.054200e-01,0.6
5.054400e-01,0.58
5.054600e-01,0.12
5.054800e-01,-0.42
5.055000e-01,-0.74
5.055200e-01,-0.48
5.055400e-01,0.16
5.055600e-01,0.58
5.055800e-01,0.62
5.056000e-01,0.22
5.056200e-01,-0.44
5.056400e-01,-0.66
5.056600e-01,-0.32
5.056800e-01,0.04
5.057000e-01,0.52
5.057200e-01,0.76
5.057400e-01,0.12
5.057600e-01,-0.56
5.057800e-01,-0.52
5.058000e-01,-0.18
5.058200e-01,0.26
5.058400e-01,0.52
5.058600e-01,0.32
5.058800e-01,-0.1
5.059000e-01,-0.4
5.059200e-01,-0.38
5.059400e-01,-0.02
5.059600e-01,0.38
5.059800e-01,0.5
5.060000e-01,0.32
5.060200e-01,-1.11022e-16
5.060400e-01,-0.3
5.060600e-01,-0.4
5.060800e-01,-0.3
5.061000e-01,-0.02
5.061200e-01,0.4
5.061400e-01,0.56
5.061600e-01,0.16
5.061800e-01,-0.34
5.062000e-01,-0.36
5.062200e-01,-0.32
5.062400e-01,-1.11022e-16
5.062600e-01,0.38
5.062800e-01,0.26
5.063000e-01,-1.11022e-16
5.063200e-01,-0.12
5.063400e-01,-0.2
5.063600e-01,-0.08
5.063800e-01,0.12
5.064000e-01,0.18
5.064200e-01,0.04
5.064400e-01,-0.04
5.064600e-01,-0.1
5.064800e-01,-0.08
5.065000e-01,-0.04
5.065200e-01,-0.08
5.065400e-01,-0.1
5.065600e-01,-0.08
5.065800e-01,0.02
5.066000e-01,0.22
5.066200e-01,0.16
5.066400e-01,-0.06
5.066600e-01,-0.22
5.066800e-01,-0.18
5.067000e-01,0.04
5.067200e-01,0.2
5.067400e-01,0.32
5.067600e-01,0.14
5.067800e-01,-0.12
5.068000e-01,-0.44
5.068200e-01,-0.4
5.068400e-01,0.1
5.068600e-01,0.62
5.068800e-01,0.56
5.069000e-01,0.18
5.069200e-01,-0.22
5.069400e-01,-0.68
5.069600e-01,-0.52
5.069800e-01,0.12
5.070000e-01,0.52
5.070200e-01,0.52
5.070400e-01,0.5
5.070600e-01,0.06
5.070800e-01,-0.44
5.071000e-01,-0.6
5.071200e-01,-0.44
5.071400e-01,-0.06
5.071600e-01,0.46
5.071800e-01,0.74
5.072000e-01,0.46
5.072200e-01,-0.14
5.072400e-01,-0.48
5.072600e-01,-0.48
5.072800e-01,-0.28
5.073000e-01,0.1
5.073200e-01,0.4
5.073400e-01,0.44
5.073600e-01,0.22
5.073800e-01,-0.12
5.074000e-01,-0.24
5.074200e-01,-0.26
5.074400e-01,-0.14
5.074600e-01,0.04
5.074800e-01,0.14
5.075000e-01,0.32
5.075200e-01,0.16
5.075400e-01,-0.08
5.075600e-01,-0.16
5.075800e-01,-0.22
5.076000e-01,-0.18
5.076200e-01,0.18
5.076400e-01,0.36
5.076600e-01,0.2
5.076800e-01,0.04
5.077000e-01,-0.04
5.077200e-01,-0.2
5.077400e-01,-0.28
5.077600e-01,-0.14
5.077800e-01,0.14
5.078000e-01,0.3
5.078200e-01,0.2
5.078400e-01,-0.08
5.078600e-01,-0.24
5.078800e-01,-0.22
5.079000e-01,-0.06
5.079200e-01,0.08
5.079400e-01,0.3
5.079600e-01,0.36
5.079800e-01,0.1
5.080000e-01,-0.22
5.080200e-01,-0.3
5.080400e-01,-0.18
5.080600e-01,0.04
5.080800e-01,0.18
5.081000e-01,0.3
5.081200e-01,0.04
5.081400e-01,-0.12
5.081600e-01,-0.08
5.081800e-01,-0.06
5.082000e-01,-0.14
5.082200e-01,0.06
5.082400e-01,0.12
5.082600e-01,0.08
5.082800e-01,0.2
5.083000e-01,0.12
5.083200e-01,-0.12
5.083400e-01,-0.22
5.083600e-01,-0.14
5.083800e-01,-1.11022e-16
5.084000e-01,0.18
5.084200e-01,0.22
5.084400e-01,0.12
5.084600e-01,-0.08
5.084800e-01,-0.12
5.085000e-01,-0.16
5.085200e-01,-0.12
5.085400e-01,0.02
5.085600e-01,0.14
5.085800e-01,0.2
5.086000e-01,0.1
5.086200e-01,0.1
5.086400e-01,-0.06
5.086600e-01,-0.26
5.086800e-01,-0.12
5.087000e-01,0.2
5.087200e-01,0.24
5.087400e-01,-1.11022e-16
5.087600e-01,-0.02
5.087800e-01,-0.02
5.088000e-01,-0.02
5.088200e-01,-0.04
5.088400e-01,-0.04
5.088600e-01,-0.06
5.088800e-01,-1.11022e-16
5.089000e-01,0.04
5.089200e-01,0.12
5.089400e-01,0.26
5.089600e-01,0.08
5.089800e-01,-0.16
5.090000e-01,-0.22
5.090200e-01,-0.08
5.090400e-01,-0.02
5.090600e-01,0.16
5.090800e-01,0.3
5.091000e-01,0.22
5.091200e-01,-0.04
5.091400e-01,-0.3
5.091600e-01,-0.3
5.091800e-01,-0.24
5.092000e-01,-0.02
5.092200e-01,0.52
5.092400e-01,0.62
5.092600e-01,0.26
5.092800e-01,-0.32
5.093000e-01,-0.72
5.093200e-01,-0.6
5.093400e-01,0.2
5.093600e-01,0.64
5.093800e-01,0.56
5.094000e-01,0.16
5.094200e-01,-0.28
5.094400e-01,-0.52
5.094600e-01,-0.38
5.094800e-01,0.02
5.095000e-01,0.36
5.095200e-01,0.44
5.095400e-01,0.18
5.095600e-01,-0.2
5.095800e-01,-0.32
5.096000e-01,-0.28
5.096200e-01,-0.04
5.096400e-01,0.38
5.096600e-01,0.38
5.096800e-01,0.04
5.097000e-01,-0.34
5.097200e-01,-0.38
5.097400e-01,-0.14
5.097600e-01,0.08
5.097800e-01,0.48
5.098000e-01,0.64
5.098200e-01,0.34
5.098400e-01,-0.38
5.098600e-01,-0.76
5.098800e-01,-0.7
5.099000e-01,-0.08
5.099200e-01,0.9
5.099400e-01,1.2
5.099600e-01,0.44
5.099800e-01,-0.52
5.100000e-01,-0.96
5.100200e-01,-0.72
5.100400e-01,-0.08
5.100600e-01,0.5
5.100800e-01,0.76
5.101000e-01,0.56
5.101200e-01,-1.11022e-16
5.101400e-01,-0.66
5.101600e-01,-0.72
5.101800e-01,-0.26
5.102000e-01,0.2
5.102200e-01,0.6
5.102400e-01,0.72
5.102600e-01,0.3
5.102800e-01,-0.3
5.103000e-01,-0.7
5.103200e-01,-0.66
5.103400e-01,-0.14
5.103600e-01,0.46
5.103800e-01,0.64
5.104000e-01,0.44
5.104200e-01,-0.02
5.104400e-01,-0.42
5.104600e-01,-0.6
5.104800e-01,-0.34
5.105000e-01,-0.06
5.105200e-01,0.22
5.105400e-01,0.3
5.105600e-01,0.48
5.105800e-01,0.32
5.106000e-01,-0.08
5.106200e-01,-0.44
5.106400e-01,-0.62
5.106600e-01,-0.52
5.106800e-01,0.06
5.107000e-01,0.56
5.107200e-01,0.76
5.107400e-01,0.62
5.107600e-01,0.18
5.107800e-01,-0.56
5.108000e-01,-0.86
5.108200e-01,-0.36
5.108400e-01,0.14
5.108600e-01,0.36
5.108800e-01,0.46
5.109000e-01,0.38
5.109200e-01,0.1
5.109400e-01,-0.14
5.109600e-01,-0.24
5.109800e-01,-0.32
5.110000e-01,-0.22
5.110200e-01,-0.02
5.110400e-01,0.26
5.110600e-01,0.32
5.110800e-01,0.12
5.111000e-01,-0.08
5.111200e-01,-0.1
5.111400e-01,-0.04
5.111600e-01,0.12
5.111800e-01,-1.11022e-16
5.112000e-01,-0.3
5.112200e-01,-0.26
5.112400e-01,0.12
5.112600e-01,0.26
5.112800e-01,0.14
5.113000e-01,0.18
5.113200e-01,0.18
5.113400e-01,-0.04
5.113600e-01,-0.14
5.113800e-01,-0.26
5.114000e-01,-0.32
5.114200e-01,-0.04
5.114400e-01,0.26
5.114600e-01,0.4
5.114800e-01,0.38
5.115000e-01,0.46
5.115200e-01,0.12
5.115400e-01,-0.5
5.115600e-01,-0.7
5.115800e-01,-0.4
5.116000e-01,0.1
5.116200e-01,0.6
5.116400e-01,0.72
5.116600e-01,0.14
5.116800e-01,-0.34
5.117000e-01,-0.24
5.117200e-01,-0.28
5.117400e-01,-0.32
5.117600e-01,-0.06
5.117800e-01,0.2
5.118000e-01,0.24
5.118200e-01,0.24
5.118400e-01,0.14
5.118600e-01,-0.12
5.118800e-01,-0.08
5.119000e-01,-0.02
5.119200e-01,-0.1
5.119400e-01,-0.1
5.119600e-01,0.04
5.119800e-01,0.04
5.120000e-01,0.12
5.120200e-01,0.16
5.120400e-01,0.12
5.120600e-01,0.12
5.120800e-01,0.02
5.121000e-01,-0.2
5.121200e-01,-0.46
5.121400e-01,-0.22
5.121600e-01,0.12
5.121800e-01,0.36
5.122000e-01,0.24
5.122200e-01,-0.02
5.122400e-01,-0.3
5.122600e-01,-0.18
5.122800e-01,-1.11022e-16
5.123000e-01,0.1
5.123200e-01,0.2
5.123400e-01,0.12
5.123600e-01,-0.04
5.123800e-01,-0.18
5.124000e-01,-0.06
5.124200e-01,0.16
5.124400e-01,0.26
5.124600e-01,0.12
5.124800e-01,-0.02
5.125000e-01,-0.24
5.125200e-01,-0.28
5.125400e-01,-0.04
5.125600e-01,0.24
5.125800e-01,0.3
5.126000e-01,0.18
5.126200e-01,-0.04
5.126400e-01,-0.16
5.126600e-01,-0.18
5.126800e-01,-0.08
5.127000e-01,0.08
5.127200e-01,0.18
5.127400e-01,0.14
5.127600e-01,0.04
5.127800e-01,-0.08
5.128000e-01,-0.1
5.128200e-01,-0.02
5.128400e-01,0.06
5.128600e-01,0.2
5.128800e-01,0.12
5.129000e-01,-0.16
5.129200e-01,-0.16
5.129400e-01,-0.06
5.129600e-01,0.1
5.129800e-01,0.22
5.130000e-01,0.2
5.130200e-01,-0.14
5.130400e-01,-0.38
5.130600e-01,-0.24
5.130800e-01,-0.12
5.131000e-01,-0.02
5.131200e-01,0.38
5.131400e-01,0.4
5.131600e-01,-1.11022e-16
5.131800e-01,-0.12
5.132000e-01,-0.14
5.132200e-01,-0.16
5.132400e-01,-0.06
5.132600e-01,-0.02
5.132800e-01,0.08
5.133000e-01,0.24
5.133200e-01,0.24
5.133400e-01,0.06
5.133600e-01,-0.16
5.133800e-01,-0.34
5.134000e-01,-0.36
5.134200e-01,0.02
5.134400e-01,0.3
5.134600e-01,0.42
5.134800e-01,0.26
5.135000e-01,-0.08
5.135200e-01,-0.46
5.135400e-01,-0.22
5.135600e-01,0.16
5.135800e-01,0.36
5.136000e-01,0.2
5.136200e-01,0.06
5.136400e-01,-0.14
5.136600e-01,-0.24
5.136800e-01,-0.08
5.137000e-01,0.1
5.137200e-01,0.24
5.137400e-01,0.22
5.137600e-01,0.02
5.137800e-01,-0.02
5.138000e-01,-0.28
5.138200e-01,-0.42
5.138400e-01,-0.22
5.138600e-01,0.12
5.138800e-01,0.44
5.139000e-01,0.52
5.139200e-01,0.18
5.139400e-01,-0.32
5.139600e-01,-0.42
5.139800e-01,-0.28
5.140000e-01,-0.04
5.140200e-01,0.3
5.140400e-01,0.44
5.140600e-01,0.18
5.140800e-01,-0.24
5.141000e-01,-0.34
5.141200e-01,-0.26
5.141400e-01,-0.18
5.141600e-01,0.12
5.141800e-01,0.42
5.142000e-01,0.38
5.142200e-01,0.02
5.142400e-01,-0.3
5.142600e-01,-0.6
5.142800e-01,-0.44
5.143000e-01,0.06
5.143200e-01,0.48
5.143400e-01,0.46
5.143600e-01,0.12
5.143800e-01,-0.12
5.144000e-01,-0.24
5.144200e-01,-0.12
5.144400e-01,-0.02
5.144600e-01,-0.08
5.144800e-01,-0.12
5.145000e-01,-1.11022e-16
5.145200e-01,0.16
5.145400e-01,0.32
5.145600e-01,0.24
5.145800e-01,-0.08
5.146000e-01,-0.26
5.146200e-01,-0.32
5.146400e-01,-0.34
5.146600e-01,0.04
5.146800e-01,0.38
5.147000e-01,0.34
5.147200e-01,0.18
5.147400e-01,-0.12
5.147600e-01,-0.18
5.147800e-01,-0.08
5.148000e-01,-0.12
5.148200e-01,-0.12
5.148400e-01,0.04
5.148600e-01,0.12
5.148800e-01,0.1
5.149000e-01,0.04
5.149200e-01,-0.06
5.149400e-01,-0.12
5.149600e-01,-0.04
5.149800e-01,0.12
5.150000e-01,0.16
5.150200e-01,0.14
5.150400e-01,0.14
5.150600e-01,0.08
5.150800e-01,0.04
5.151000e-01,0.16
5.151200e-01,-1.11022e-16
5.151400e-01,-0.28
5.151600e-01,-0.18
5.151800e-01,0.08
5.152000e-01,0.2
5.152200e-01,0.24
5.152400e-01,0.14
5.152600e-01,-0.14
5.152800e-01,-0.4
5.153000e-01,-0.34
5.153200e-01,-0.18
5.153400e-01,0.18
5.153600e-01,0.4
5.153800e-01,0.2
5.154000e-01,0.06
5.154200e-01,-0.1
5.154400e-01,-0.16
5.154600e-01,-0.02
5.154800e-01,0.06
5.155000e-01,-0.08
5.155200e-01,0.06
5.155400e-01,0.16
5.155600e-01,0.04
5.155800e-01,0.04
5.156000e-01,-1.11022e-16
5.156200e-01,-0.3
5.156400e-01,-0.26
5.156600e-01,-1.11022e-16
5.156800e-01,0.06
5.157000e-01,0.04
5.157200e-01,0.16
5.157400e-01,0.1
5.157600e-01,-0.12
5.157800e-01,-0.2
5.158000e-01,-0.12
5.158200e-01,0.06
5.158400e-01,0.26
5.158600e-01,0.38
5.158800e-01,0.18
5.159000e-01,-0.34
5.159200e-01,-0.42
5.159400e-01,-0.06
5.159600e-01,0.12
5.159800e-01,0.2
5.160000e-01,0.28
5.160200e-01,-0.08
5.160400e-01,-0.38
5.160600e-01,-0.14
5.160800e-01,-0.04
5.161000e-01,-0.04
5.161200e-01,0.14
5.161400e-01,0.22
5.161600e-01,0.14
5.161800e-01,0.06
5.162000e-01,-0.04
5.162200e-01,-0.26
5.162400e-01,-0.24
5.162600e-01,-0.04
5.162800e-01,0.04
5.163000e-01,0.18
5.163200e-01,0.36
5.163400e-01,0.16
5.163600e-01,-0.1
5.163800e-01,-0.12
5.164000e-01,-0.12
5.164200e-01,-0.1
5.164400e-01,-0.2
5.164600e-01,-0.1
5.164800e-01,0.14
5.165000e-01,0.32
5.165200e-01,0.12
5.165400e-01,0.06
5.165600e-01,-0.16
5.165800e-01,-0.36
5.166000e-01,-0.24
5.166200e-01,-0.18
5.166400e-01,-1.11022e-16
5.166600e-01,0.4
5.166800e-01,0.42
5.167000e-01,0.02
5.167200e-01,-0.18
5.167400e-01,-0.32
5.167600e-01,-0.34
5.167800e-01,-0.04
5.168000e-01,0.3
5.168200e-01,0.3
5.168400e-01,0.12
5.168600e-01,0.02
5.168800e-01,-0.06
5.169000e-01,-0.12
5.169200e-01,-0.12
5.169400e-01,-0.14
5.169600e-01,-0.12
5.169800e-01,0.04
5.170000e-01,0.24
5.170200e-01,0.2
5.170400e-01,0.08
5.170600e-01,-0.04
5.170800e-01,-0.22
5.171000e-01,-0.44
5.171200e-01,-0.32
5.171400e-01,0.28
5.171600e-01,0.46
5.171800e-01,0.18
5.172000e-01,-0.12
5.172200e-01,-0.28
5.172400e-01,-0.24
5.172600e-01,-0.04
5.172800e-01,0.08
5.173000e-01,0.16
5.173200e-01,0.28
5.173400e-01,0.16
5.173600e-01,-0.04
5.173800e-01,-0.18
5.174000e-01,-0.24
5.174200e-01,-0.08
5.174400e-01,0.04
5.174600e-01,0.04
5.174800e-01,0.14
5.175000e-01,0.26
5.175200e-01,0.06
5.175400e-01,-0.2
5.175600e-01,-0.42
5.175800e-01,-0.34
5.176000e-01,0.1
5.176200e-01,0.54
5.176400e-01,0.34
5.176600e-01,-0.14
5.176800e-01,-0.18
5.177000e-01,-0.24
5.177200e-01,-0.2
5.177400e-01,0.16
5.177600e-01,0.32
5.177800e-01,0.02
5.178000e-01,-0.12
5.178200e-01,-0.18
5.178400e-01,-0.16
5.178600e-01,0.18
5.178800e-01,0.16
5.179000e-01,-0.14
5.179200e-01,-0.16
5.179400e-01,0.02
5.179600e-01,0.16
5.179800e-01,0.3
5.180000e-01,0.12
5.180200e-01,-0.22
5.180400e-01,-0.22
5.180600e-01,-0.14
5.180800e-01,-0.02
5.181000e-01,0.26
5.181200e-01,0.26
5.181400e-01,0.06
5.181600e-01,-0.02
5.181800e-01,-0.18
5.182000e-01,-0.28
5.182200e-01,-0.22
5.182400e-01,-0.18
5.182600e-01,0.04
5.182800e-01,0.32
5.183000e-01,0.2
5.183200e-01,-0.08
5.183400e-01,-0.3
5.183600e-01,-0.18
5.183800e-01,0.02
5.184000e-01,0.08
5.184200e-01,0.06
5.184400e-01,-0.04
5.184600e-01,-0.16
5.184800e-01,-0.14
5.185000e-01,0.06
5.185200e-01,0.14
5.185400e-01,0.04
5.185600e-01,0.06
5.185800e-01,0.02
5.186000e-01,-0.26
5.186200e-01,-0.24
5.186400e-01,-1.11022e-16
5.186600e-01,0.26
5.186800e-01,0.44
5.187000e-01,0.18
5.187200e-01,-0.28
5.187400e-01,-0.48
5.187600e-01,-0.36
5.187800e-01,-0.08
5.188000e-01,0.38
5.188200e-01,0.52
5.188400e-01,0.12
5.188600e-01,-0.26
5.188800e-01,-0.44
5.189000e-01,-0.5
5.189200e-01,0.02
5.189400e-01,0.44
5.189600e-01,0.24
5.189800e-01,0.08
5.190000e-01,-0.04
5.190200e-01,-0.38
5.190400e-01,-0.3
5.190600e-01,0.28
5.190800e-01,0.36
5.191000e-01,0.2
5.191200e-01,0.08
5.191400e-01,-0.34
5.191600e-01,-0.5
5.191800e-01,-0.1
5.192000e-01,0.16
5.192200e-01,0.2
5.192400e-01,0.18
5.192600e-01,-0.02
5.192800e-01,-0.4
5.193000e-01,-0.36
5.193200e-01,-0.08
5.193400e-01,0.04
5.193600e-01,0.16
5.193800e-01,0.18
5.194000e-01,0.06
5.194200e-01,-0.04
5.194400e-01,0.02
5.194600e-01,-0.02
5.194800e-01,-1.11022e-16
5.195000e-01,0.06
5.195200e-01,-1.11022e-16
5.195400e-01,0.04
5.195600e-01,0.02
5.195800e-01,-1.11022e-16
5.196000e-01,0.04
5.196200e-01,0.1
5.196400e-01,-0.1
5.196600e-01,-0.4
5.196800e-01,-0.28
5.197000e-01,0.1
5.197200e-01,0.24
5.197400e-01,0.36
5.197600e-01,0.26
5.197800e-01,-0.24
5.198000e-01,-0.42
5.198200e-01,-0.22
5.198400e-01,-0.06
5.198600e-01,-1.11022e-16
5.198800e-01,0.22
5.199000e-01,0.22
5.199200e-01,0.08
5.199400e-01,0.02
5.199600e-01,-0.12
5.199800e-01,-0.4
5.200000e-01,-0.3
5.200200e-01,-1.11022e-16
5.200400e-01,0.2
5.200600e-01,0.44
5.200800e-01,0.4
5.201000e-01,0.02
5.201200e-01,-0.28
5.201400e-01,-0.44
5.201600e-01,-0.38
5.201800e-01,-0.06
5.202000e-01,0.18
5.202200e-01,0.3
5.202400e-01,0.34
5.202600e-01,0.16
5.202800e-01,-0.26
5.203000e-01,-0.42
5.203200e-01,-0.32
5.203400e-01,-0.12
5.203600e-01,0.18
5.203800e-01,0.46
5.204000e-01,0.32
5.204200e-01,-0.12
5.204400e-01,-0.4
5.204600e-01,-0.32
5.204800e-01,-0.04
5.205000e-01,0.14
5.205200e-01,0.26
5.205400e-01,-0.04
5.205600e-01,-0.28
5.205800e-01,-0.36
5.206000e-01,-0.16
5.206200e-01,0.12
5.206400e-01,0.32
5.206600e-01,0.12
5.206800e-01,-0.16
5.207000e-01,-0.22
5.207200e-01,-0.12
5.207400e-01,-1.11022e-16
5.207600e-01,0.06
5.207800e-01,0.06
5.208000e-01,-0.04
5.208200e-01,-0.24
5.208400e-01,-0.08
5.208600e-01,0.26
5.208800e-01,0.32
5.209000e-01,-0.06
5.209200e-01,-0.36
5.209400e-01,-0.44
5.209600e-01,-0.14
5.209800e-01,-0.06
5.210000e-01,-0.04
5.210200e-01,0.22
5.210400e-01,0.54
5.210600e-01,0.46
5.210800e-01,-1.11022e-16
5.211000e-01,-0.56
5.211200e-01,-0.7
5.211400e-01,-0.36
5.211600e-01,0.16
5.211800e-01,0.66
5.212000e-01,0.64
